[gd_resource type="Resource" load_steps=9 format=2]

[ext_resource path="res://resource_definitions/grow_part.gd" type="Script" id=1]
[ext_resource path="res://assets/graphics/organs/delayed_grower.png" type="Texture" id=2]
[ext_resource path="res://assets/graphics/biotemplates/delayed_grower-pressed.png" type="Texture" id=3]
[ext_resource path="res://assets/graphics/biotemplates/delayed_grower.png" type="Texture" id=4]
[ext_resource path="res://assets/graphics/biotemplates/delayed_grower-disabled.png" type="Texture" id=5]
[ext_resource path="res://assets/graphics/biotemplates/delayed_grower-hover.png" type="Texture" id=6]
[ext_resource path="res://assets/graphics/symbols/delayed_grower.png" type="Texture" id=7]
[ext_resource path="res://assets/graphics/symbols/delayed_grower_big.png" type="Texture" id=8]

[resource]
script = ExtResource( 1 )
label = "delayed_grower"
initial_size = 1
minimum_size = 1
activation_delay = 2
size_increase_per_round = 2
level_increase_per_round = 1
size_increase_all_others_on_add = 0
level_increase_all_others_on_add = 0
size_increase_others_per_round = {

}
organ_texture = ExtResource( 2 )
biotemplate_texture = ExtResource( 4 )
biotemplate_hover_texture = ExtResource( 6 )
biotemplate_pressed_texture = ExtResource( 3 )
biotemplate_disabled_texture = ExtResource( 5 )
icon_texture = ExtResource( 7 )
big_icon_texture = ExtResource( 8 )
color = Color( 0.686275, 0.223529, 0.658824, 1 )
