[gd_resource type="Resource" load_steps=9 format=2]

[ext_resource path="res://resource_definitions/grow_part.gd" type="Script" id=1]
[ext_resource path="res://assets/graphics/organs/shrinker.png" type="Texture" id=2]
[ext_resource path="res://assets/graphics/biotemplates/shrinker-pressed.png" type="Texture" id=3]
[ext_resource path="res://assets/graphics/biotemplates/shrinker-disabled.png" type="Texture" id=4]
[ext_resource path="res://assets/graphics/biotemplates/shrinker.png" type="Texture" id=5]
[ext_resource path="res://assets/graphics/biotemplates/shrinker-hover.png" type="Texture" id=6]
[ext_resource path="res://assets/graphics/symbols/shrinker.png" type="Texture" id=7]
[ext_resource path="res://assets/graphics/symbols/shrinker_big.png" type="Texture" id=8]

[resource]
script = ExtResource( 1 )
label = "shrinker"
initial_size = 5
minimum_size = 1
activation_delay = 0
size_increase_per_round = -1
level_increase_per_round = 1
size_increase_all_others_on_add = 0
level_increase_all_others_on_add = 0
size_increase_others_per_round = {

}
organ_texture = ExtResource( 2 )
biotemplate_texture = ExtResource( 5 )
biotemplate_hover_texture = ExtResource( 6 )
biotemplate_pressed_texture = ExtResource( 3 )
biotemplate_disabled_texture = ExtResource( 4 )
icon_texture = ExtResource( 7 )
big_icon_texture = ExtResource( 8 )
color = Color( 0.345098, 0.164706, 0.576471, 1 )
