[gd_scene load_steps=7 format=2]

[ext_resource path="res://assets/graphics/documents/side/side_explain_eat_for_egg-hover.png" type="Texture" id=1]
[ext_resource path="res://assets/sounds/gloop-06.ogg" type="AudioStream" id=2]
[ext_resource path="res://scenes/buttons/document_button.gd" type="Script" id=3]
[ext_resource path="res://assets/graphics/documents/side/side_explain_eat_for_egg.png" type="Texture" id=4]
[ext_resource path="res://assets/graphics/documents/side/side_explain_eat_for_egg-pressed.png" type="Texture" id=5]
[ext_resource path="res://assets/sounds/hover.ogg" type="AudioStream" id=6]

[node name="DocumentButton" type="TextureButton"]
anchor_right = 1.0
anchor_bottom = 1.0
margin_right = -1080.0
margin_bottom = -700.0
rect_min_size = Vector2( 200, 20 )
mouse_filter = 1
texture_normal = ExtResource( 4 )
texture_pressed = ExtResource( 5 )
texture_hover = ExtResource( 1 )
script = ExtResource( 3 )
__meta__ = {
"_edit_use_anchors_": false
}

[node name="HoverSound" type="AudioStreamPlayer" parent="."]
stream = ExtResource( 6 )
volume_db = -5.0
pitch_scale = 0.8
bus = "Sound"

[node name="PressSound" type="AudioStreamPlayer" parent="."]
stream = ExtResource( 2 )
volume_db = -3.0
pitch_scale = 0.7
bus = "Sound"
[connection signal="mouse_entered" from="." to="." method="_on_DocumentButton_mouse_entered"]
[connection signal="pressed" from="." to="." method="_on_DocumentButton_pressed"]
[connection signal="finished" from="PressSound" to="." method="_on_PressSound_finished"]
