[gd_scene load_steps=7 format=2]

[ext_resource path="res://assets/graphics/gui/mini_egg-hover.png" type="Texture" id=1]
[ext_resource path="res://assets/graphics/gui/mini_egg-pressed.png" type="Texture" id=2]
[ext_resource path="res://assets/graphics/gui/mini_egg.png" type="Texture" id=3]
[ext_resource path="res://assets/sounds/hover.ogg" type="AudioStream" id=4]
[ext_resource path="res://assets/sounds/gloop-06.ogg" type="AudioStream" id=5]
[ext_resource path="res://scenes/buttons/mini_egg_button.gd" type="Script" id=6]

[node name="MiniEggButton" type="TextureButton"]
margin_right = 40.0
margin_bottom = 40.0
texture_normal = ExtResource( 3 )
texture_pressed = ExtResource( 2 )
texture_hover = ExtResource( 1 )
script = ExtResource( 6 )
__meta__ = {
"_edit_use_anchors_": false
}

[node name="HoverSound" type="AudioStreamPlayer" parent="."]
stream = ExtResource( 4 )
volume_db = -5.0
pitch_scale = 0.8
bus = "Sound"

[node name="PressSound" type="AudioStreamPlayer" parent="."]
stream = ExtResource( 5 )
volume_db = -3.0
pitch_scale = 0.7
bus = "Sound"
[connection signal="mouse_entered" from="." to="." method="_on_MiniEggButton_mouse_entered"]
[connection signal="pressed" from="." to="." method="_on_MiniEggButton_pressed"]
