[gd_resource type="Resource" load_steps=9 format=2]

[ext_resource path="res://resource_definitions/observables/client_order.gd" type="Script" id=1]
[ext_resource path="res://assets/graphics/documents/side/side_order_parts_challenge_2-pressed.png" type="Texture" id=2]
[ext_resource path="res://assets/graphics/documents/side/side_order_parts_challenge_2-hover.png" type="Texture" id=3]
[ext_resource path="res://assets/graphics/documents/side/side_order_parts_challenge_2.png" type="Texture" id=4]
[ext_resource path="res://assets/graphics/documents/preview/preview_order_parts_challenge_2.png" type="Texture" id=5]
[ext_resource path="res://assets/graphics/documents/preview/preview_order_parts_challenge_2-pressed.png" type="Texture" id=6]
[ext_resource path="res://assets/graphics/documents/preview/preview_order_parts_challenge_2-hover.png" type="Texture" id=7]
[ext_resource path="res://assets/graphics/documents/detail/detail_order_parts_challenge_2.png" type="Texture" id=8]

[resource]
script = ExtResource( 1 )
label = "order_parts_challenge_2"
detail_texture = ExtResource( 8 )
side_view = ExtResource( 4 )
side_view_hover = ExtResource( 3 )
side_view_pressed = ExtResource( 2 )
preview = ExtResource( 5 )
preview_hover = ExtResource( 7 )
preview_pressed = ExtResource( 6 )
prerequisite_documents = [ "order_parts_challenge_1" ]
required_parts = {
"affector_blue": 1,
"affector_red": 1,
"anti_basic": 1,
"anti_shrinker": 1,
"basic_grower": 1,
"decayer": 1,
"delayed_grower": 1,
"other_grower": 1,
"other_shrinker": 1,
"shrinker": 1
}
required_total_level = 0
required_min_size = 0
required_max_size = 0
