[gd_scene load_steps=3 format=2]

[ext_resource path="res://assets/fonts/slapface.tres" type="DynamicFont" id=1]
[ext_resource path="res://scenes/title/funky_label.gd" type="Script" id=2]

[node name="FunkyLabel" type="Label"]
margin_right = 500.0
margin_bottom = 32.0
custom_fonts/font = ExtResource( 1 )
custom_colors/font_color = Color( 0.588235, 0.780392, 0.580392, 1 )
custom_colors/font_outline_modulate = Color( 0.345098, 0.462745, 0.32549, 1 )
custom_colors/font_color_shadow = Color( 0.0823529, 0.184314, 0.0666667, 1 )
text = "Example Text"
align = 1
valign = 1
script = ExtResource( 2 )
__meta__ = {
"_edit_use_anchors_": false
}

[node name="ShadowTween" type="Tween" parent="."]
[connection signal="visibility_changed" from="." to="." method="_on_FunkyLabel_visibility_changed"]
[connection signal="tween_all_completed" from="ShadowTween" to="." method="_on_ShadowTween_tween_all_completed"]
