[gd_scene load_steps=5 format=2]

[ext_resource path="res://assets/graphics/gui/level_counter-back.png" type="Texture" id=1]
[ext_resource path="res://assets/graphics/gui/level_counter-front.png" type="Texture" id=2]
[ext_resource path="res://assets/graphics/gui/level_counter-fill.png" type="Texture" id=3]
[ext_resource path="res://scenes/grow/egg_level_dial.gd" type="Script" id=4]

[node name="EggLevelDial" type="TextureProgress"]
anchor_right = 1.0
anchor_bottom = 1.0
margin_right = -1130.0
margin_bottom = -570.0
max_value = 20.0
texture_under = ExtResource( 1 )
texture_over = ExtResource( 2 )
texture_progress = ExtResource( 3 )
fill_mode = 5
script = ExtResource( 4 )
__meta__ = {
"_edit_use_anchors_": false
}

[node name="LevelTween" type="Tween" parent="."]
