[gd_scene load_steps=2 format=2]

[ext_resource path="res://scenes/grow/sac_stats.gd" type="Script" id=1]

[node name="SacStats" type="Control"]
margin_right = 300.0
margin_bottom = 50.0
script = ExtResource( 1 )
__meta__ = {
"_edit_use_anchors_": false
}

[node name="StatsContainer" type="GridContainer" parent="."]
margin_right = 604.0
margin_bottom = 153.0
columns = 3
__meta__ = {
"_edit_use_anchors_": false
}
