[gd_scene load_steps=6 format=2]

[ext_resource path="res://assets/graphics/work_room_parts/exit_door-mask.png" type="BitMap" id=1]
[ext_resource path="res://assets/graphics/work_room_parts/exit_door-opened.png" type="Texture" id=2]
[ext_resource path="res://assets/graphics/work_room_parts/exit_door-closed.png" type="Texture" id=3]
[ext_resource path="res://assets/sounds/hover.ogg" type="AudioStream" id=5]
[ext_resource path="res://scenes/work/exit_door.gd" type="Script" id=6]

[node name="ExitDoor" type="TextureButton"]
anchor_left = 0.5
anchor_top = 0.5
anchor_right = 0.5
anchor_bottom = 0.5
margin_left = -623.86
margin_top = -116.339
margin_right = -373.86
margin_bottom = 133.661
texture_normal = ExtResource( 3 )
texture_pressed = ExtResource( 2 )
texture_hover = ExtResource( 2 )
texture_click_mask = ExtResource( 1 )
script = ExtResource( 6 )
__meta__ = {
"_edit_use_anchors_": false
}

[node name="HoverSound" type="AudioStreamPlayer" parent="."]
stream = ExtResource( 5 )
volume_db = -5.0
pitch_scale = 0.8
bus = "Sound"
[connection signal="mouse_entered" from="." to="." method="_on_ExitDoor_mouse_entered"]
