[gd_scene load_steps=3 format=2]

[ext_resource path="res://assets/graphics/character/laya-left-down.png" type="Texture" id=1]
[ext_resource path="res://scenes/work/laya.gd" type="Script" id=2]

[node name="Laya" type="Sprite"]
position = Vector2( 625.52, 392.094 )
texture = ExtResource( 1 )
script = ExtResource( 2 )
